Ankur Singhal's COVID19 data project: COVID19 projections using Generalized Richards Model
…
Making COVID19 forecasts on confirmed cases and deaths around the world using Generalized Richards Model (GRM)

  Ankur Singhal  (Empirical Solutions Consulting, LLC)

2020-04-14

Table of Contents

Load the data

Will be using data made available by Johns Hopkins Center for Systems Science and Engineering (CSSE) https://github.com/CSSEGISandData/COVID-19.git

Confirmed cases

# A tibble: 21,374 x 7
# Groups:   country, province [264]
   country     province          lat    lon date       cum_cases cases
   <chr>       <chr>           <dbl>  <dbl> <date>         <int> <int>
 1 Afghanistan ""               33    65    2020-01-22         0     0
 2 Albania     ""               41.2  20.2  2020-01-22         0     0
 3 Algeria     ""               28.0   1.66 2020-01-22         0     0
 4 Andorra     ""               42.5   1.52 2020-01-22         0     0
 5 Angola      ""              -11.2  17.9  2020-01-22         0     0
 6 Antigua an~ ""               17.1 -61.8  2020-01-22         0     0
 7 Argentina   ""              -38.4 -63.6  2020-01-22         0     0
 8 Armenia     ""               40.1  45.0  2020-01-22         0     0
 9 Australia   "Australian Ca~ -35.5 149.   2020-01-22         0     0
10 Australia   "New South Wal~ -33.9 151.   2020-01-22         0     0
# ... with 21,364 more rows

# A tibble: 21,371 x 7
# Groups:   country, province [264]
   country     province        lat    lon date       cum_deaths deaths
   <chr>       <chr>         <dbl>  <dbl> <date>          <int>  <int>
 1 Afghanistan ""             33    65    2020-01-22          0      0
 2 Albania     ""             41.2  20.2  2020-01-22          0      0
 3 Algeria     ""             28.0   1.66 2020-01-22          0      0
 4 Andorra     ""             42.5   1.52 2020-01-22          0      0
 5 Angola      ""            -11.2  17.9  2020-01-22          0      0
 6 Antigua an~ ""             17.1 -61.8  2020-01-22          0      0
 7 Argentina   ""            -38.4 -63.6  2020-01-22          0      0
 8 Armenia     ""             40.1  45.0  2020-01-22          0      0
 9 Australia   "Australian ~ -35.5 149.   2020-01-22          0      0
10 Australia   "New South W~ -33.9 151.   2020-01-22          0      0
# ... with 21,361 more rows
…
