Projections using Generalized Richards Model
…
Confirmed cases

cases <- read.delim('data/covid-19/csse_covid_19_data/csse_covid_19_time_series/time_series_covid19_confirmed_global.csv', 
                           sep = ',', header = TRUE, stringsAsFactors = FALSE) %>%
  rename(country = Country.Region, province = Province.State, lat = Lat, lon = Long) 
cases <- reshape2::melt(cases, id.vars = c('country', 'province', 'lat', 'lon'),
                             variable.name = 'date', value.name = 'cum_cases') %>%
  mutate(date = as.Date(date, "X%m.%d.%y")) %>% 
  group_by(country, province) %>% 
  mutate(cases = c(cum_cases[1], diff(cum_cases))) %>%
  filter(cases >= 0)
cases$country[cases$country == "Taiwan*"] <- "Taiwan"
cases

## # A tibble: 21,374 x 7
## # Groups:   country, province [264]
##    country         province                lat    lon date       cum_cases cases
##    <chr>           <chr>                 <dbl>  <dbl> <date>         <int> <int>
##  1 Afghanistan     ""                     33    65    2020-01-22         0     0
##  2 Albania         ""                     41.2  20.2  2020-01-22         0     0
##  3 Algeria         ""                     28.0   1.66 2020-01-22         0     0
##  4 Andorra         ""                     42.5   1.52 2020-01-22         0     0
##  5 Angola          ""                    -11.2  17.9  2020-01-22         0     0
##  6 Antigua and Ba~ ""                     17.1 -61.8  2020-01-22         0     0
##  7 Argentina       ""                    -38.4 -63.6  2020-01-22         0     0
##  8 Armenia         ""                     40.1  45.0  2020-01-22         0     0
##  9 Australia       "Australian Capital ~ -35.5 149.   2020-01-22         0     0
## 10 Australia       "New South Wales"     -33.9 151.   2020-01-22         0     0
## # ... with 21,364 more rows

# Confirmed deaths in the world
deaths <- read.delim('data/covid-19/csse_covid_19_data/csse_covid_19_time_series/time_series_covid19_deaths_global.csv', 
                           sep = ',', header = TRUE, stringsAsFactors = FALSE) %>%
  rename(country = Country.Region, province = Province.State, lat = Lat, lon = Long) 
deaths <- reshape2::melt(deaths, id.vars = c('country', 'province', 'lat', 'lon'),
                             variable.name = 'date', value.name = 'cum_deaths') %>%
  mutate(date = as.Date(date, "X%m.%d.%y")) %>% 
  group_by(country, province) %>% 
  mutate(deaths = c(cum_deaths[1], diff(cum_deaths))) %>%
  filter(deaths >= 0)
deaths$country[deaths$country == "Taiwan*"] <- "Taiwan"
deaths

## # A tibble: 21,371 x 7
## # Groups:   country, province [264]
##    country        province               lat    lon date       cum_deaths deaths
##    <chr>          <chr>                <dbl>  <dbl> <date>          <int>  <int>
##  1 Afghanistan    ""                    33    65    2020-01-22          0      0
##  2 Albania        ""                    41.2  20.2  2020-01-22          0      0
##  3 Algeria        ""                    28.0   1.66 2020-01-22          0      0
##  4 Andorra        ""                    42.5   1.52 2020-01-22          0      0
##  5 Angola         ""                   -11.2  17.9  2020-01-22          0      0
##  6 Antigua and B~ ""                    17.1 -61.8  2020-01-22          0      0
##  7 Argentina      ""                   -38.4 -63.6  2020-01-22          0      0
##  8 Armenia        ""                    40.1  45.0  2020-01-22          0      0
##  9 Australia      "Australian Capital~ -35.5 149.   2020-01-22          0      0
## 10 Australia      "New South Wales"    -33.9 151.   2020-01-22          0      0
## # ... with 21,361 more rows
…
